{"name":"I want to create a new user","id":"as-a-user-i-would-like-to-check-the-crud-functionality-of-reqres.in:I want to create a new user","testSteps":[{"number":1,"description":"Given I am on homepage of the given url","duration":313,"startTime":"2022-06-20T21:51:21.957+01:00[Europe/London]","result":"SUCCESS","precondition":false},{"number":2,"description":"When I send POST request to the the application using a valid payload to create a User","duration":4449,"startTime":"2022-06-20T21:51:22.274+01:00[Europe/London]","result":"SUCCESS","precondition":false,"children":[{"number":3,"description":"Creating user with firstName : Hina44889, job: Leader","duration":4399,"startTime":"2022-06-20T21:51:22.323+01:00[Europe/London]","result":"SUCCESS","precondition":false,"children":[{"number":4,"description":"POST https://reqres.in/api/users\r\r","duration":0,"startTime":"2022-06-20T21:51:26.709+01:00[Europe/London]","result":"SUCCESS","restQuery":{"method":"POST","path":"https://reqres.in/api/users\r\r","content":"{\n    \"name\": \"Hina44889\",\n    \"job\": \"Leader\"\n}\r","contentType":"application/json","requestHeaders":"Accept\u003d*/*\r\n\t\t\t\tContent-Type\u003dapplication/json; charset\u003dUTF-8\r\r","requestCookies":"\r\r","responseHeaders":"Date: Mon, 20 Jun 2022 20:51:27 GMT\nContent-Type: application/json; charset\u003dutf-8\nContent-Length: 85\nConnection: keep-alive\nX-Powered-By: Express\nAccess-Control-Allow-Origin: *\nEtag: W/\"55-EA03Dg467kD9ijmL9dFScQo4U/s\"\nVia: 1.1 vegur\nCF-Cache-Status: DYNAMIC\nExpect-CT: max-age\u003d604800, report-uri\u003d\"https://report-uri.cloudflare.com/cdn-cgi/beacon/expect-ct\"\nReport-To: {\"endpoints\":[{\"url\":\"https:\\/\\/a.nel.cloudflare.com\\/report\\/v3?s\u003dqwofZ326n6ogV%2FAqWQmxqwe1E%2FPjTz6w3vpnYTmLDPJZGV3acfkLT3i8Ez4FKH4iQlxeTc7qGE6QcJ46O%2BENF8NV0c5rE9pO7p2i6Nrm3CdpEPIgP9FNFrxX0w%3D%3D\"}],\"group\":\"cf-nel\",\"max_age\":604800}\nNEL: {\"success_fraction\":0,\"report_to\":\"cf-nel\",\"max_age\":604800}\nServer: cloudflare\nCF-RAY: 71e761ee8c9b7731-LHR\r","responseCookies":"\r","responseBody":"{\n    \"name\": \"Hina44889\",\n    \"job\": \"Leader\",\n    \"id\": \"734\",\n    \"createdAt\": \"2022-06-20T20:51:27.160Z\"\n}","statusCode":201},"precondition":false}]}]},{"number":5,"description":"Then I get status code 201","duration":31,"startTime":"2022-06-20T21:51:26.724+01:00[Europe/London]","result":"SUCCESS","precondition":false},{"number":6,"description":"And I verify if user has been added to the application","duration":614,"startTime":"2022-06-20T21:51:26.755+01:00[Europe/London]","result":"SUCCESS","precondition":false,"children":[{"number":7,"description":"Getting the user information with firstName: Michael","duration":609,"startTime":"2022-06-20T21:51:26.756+01:00[Europe/London]","result":"SUCCESS","precondition":false,"children":[{"number":8,"description":"GET https://reqres.in/api/users?page\u003d2\r\r","duration":1,"startTime":"2022-06-20T21:51:26.961+01:00[Europe/London]","result":"SUCCESS","restQuery":{"method":"GET","path":"https://reqres.in/api/users?page\u003d2\r\r","content":"\r","contentType":"null","requestHeaders":"Accept\u003d*/*\r\r","requestCookies":"\r\r","responseHeaders":"Date: Mon, 20 Jun 2022 20:51:27 GMT\nContent-Type: application/json; charset\u003dutf-8\nTransfer-Encoding: chunked\nConnection: keep-alive\nX-Powered-By: Express\nAccess-Control-Allow-Origin: *\nEtag: W/\"406-ut0vzoCuidvyMf8arZpMpJ6ZRDw\"\nVia: 1.1 vegur\nCache-Control: max-age\u003d14400\nCF-Cache-Status: HIT\nAge: 2114\nExpect-CT: max-age\u003d604800, report-uri\u003d\"https://report-uri.cloudflare.com/cdn-cgi/beacon/expect-ct\"\nReport-To: {\"endpoints\":[{\"url\":\"https:\\/\\/a.nel.cloudflare.com\\/report\\/v3?s\u003dYK00TrsP9vxqzkfyk8onc%2BbIL%2FxAEZjJ8MnHDV2XiJ12yTTqh4kTXDzowdz1icnBlp61BbkzzKjnFZ6e1xOqd0D9%2BsggJT25etdCA7Jp0qultKE6%2BcCQPll1xQ%3D%3D\"}],\"group\":\"cf-nel\",\"max_age\":604800}\nNEL: {\"success_fraction\":0,\"report_to\":\"cf-nel\",\"max_age\":604800}\nVary: Accept-Encoding\nServer: cloudflare\nCF-RAY: 71e761f0aafd76bd-LHR\nContent-Encoding: gzip\r","responseCookies":"\r","responseBody":"{\n    \"page\": 2,\n    \"per_page\": 6,\n    \"total\": 12,\n    \"total_pages\": 2,\n    \"data\": [\n        {\n            \"id\": 7,\n            \"email\": \"michael.lawson@reqres.in\",\n            \"first_name\": \"Michael\",\n            \"last_name\": \"Lawson\",\n            \"avatar\": \"https://reqres.in/img/faces/7-image.jpg\"\n        },\n        {\n            \"id\": 8,\n            \"email\": \"lindsay.ferguson@reqres.in\",\n            \"first_name\": \"Lindsay\",\n            \"last_name\": \"Ferguson\",\n            \"avatar\": \"https://reqres.in/img/faces/8-image.jpg\"\n        },\n        {\n            \"id\": 9,\n            \"email\": \"tobias.funke@reqres.in\",\n            \"first_name\": \"Tobias\",\n            \"last_name\": \"Funke\",\n            \"avatar\": \"https://reqres.in/img/faces/9-image.jpg\"\n        },\n        {\n            \"id\": 10,\n            \"email\": \"byron.fields@reqres.in\",\n            \"first_name\": \"Byron\",\n            \"last_name\": \"Fields\",\n            \"avatar\": \"https://reqres.in/img/faces/10-image.jpg\"\n        },\n        {\n            \"id\": 11,\n            \"email\": \"george.edwards@reqres.in\",\n            \"first_name\": \"George\",\n            \"last_name\": \"Edwards\",\n            \"avatar\": \"https://reqres.in/img/faces/11-image.jpg\"\n        },\n        {\n            \"id\": 12,\n            \"email\": \"rachel.howell@reqres.in\",\n            \"first_name\": \"Rachel\",\n            \"last_name\": \"Howell\",\n            \"avatar\": \"https://reqres.in/img/faces/12-image.jpg\"\n        }\n    ],\n    \"support\": {\n        \"url\": \"https://reqres.in/#support-heading\",\n        \"text\": \"To keep ReqRes free, contributions towards server costs are appreciated!\"\n    }\n}","statusCode":200},"precondition":false}]}]}],"userStory":{"id":"as-a-user-i-would-like-to-check-the-crud-functionality-of-reqres.in","storyName":"As a user I would like to check the CRUD functionality of reqres.in","path":"user.feature","type":"feature"},"featureTag":{"name":"As a user I would like to check the CRUD functionality of reqres.in","type":"feature"},"title":"I want to create a new user","description":"","tags":[{"name":"As a user I would like to check the CRUD functionality of reqres.in","type":"feature"},{"name":"reqres","type":"tag"}],"startTime":"2022-06-20T21:51:21.800+01:00[Europe/London]","duration":5570,"projectKey":"","manual":false,"result":"SUCCESS"}